exploratory_analysis.knit
…
country_dist <- met |> 
  group_by(country, accession_year) |> 
  summarize(count = n()) |> 
  arrange(desc(count)) |> 
  ungroup()

print(country_dist)

## # A tibble: 976 × 3
##    country accession_year count
##    <chr>            <dbl> <int>
##  1 <NA>              1963  4161
##  2 <NA>              2011  1900
##  3 <NA>              1994   961
##  4 <NA>              2009   942
##  5 <NA>              1953   684
##  6 <NA>              1941   672
##  7 <NA>              1951   600
##  8 <NA>              1959   563
##  9 <NA>              1975   538
## 10 <NA>              1949   535
## # ℹ 966 more rows
…
